Visualization of SMDX data : The case of Eurostat’s sudtainable development goals
…
Eurostat, OECD, UN, World Bank, IMF and many others use SDMX in order to transit their datasets.

Using R one can handle these datasets either with the rsdmx library or with specific APIs, like the eurostat library: https://ropengov.github.io/eurostat/

Data download

Every dataset from Eurostat can be defined by a unique name. We just need to provide this name to the API, for example:

library(tidyverse)
library(eurostat)
get_eurostat("tin00028")

## Table tin00028 cached at /tmp/Rtmpg9PcgV/eurostat/tin00028_date_code_TF.rds

## # A tibble: 1,712 x 6
##    ind_type  unit   indic_is geo   time       values
##    <fct>     <fct>  <fct>    <fct> <date>      <dbl>
##  1 IND_TOTAL PC_IND I_ILT12  AT    2007-01-01     69
##  2 IND_TOTAL PC_IND I_ILT12  BE    2007-01-01     69
##  3 IND_TOTAL PC_IND I_ILT12  BG    2007-01-01     34
##  4 IND_TOTAL PC_IND I_ILT12  CY    2007-01-01     41
##  5 IND_TOTAL PC_IND I_ILT12  CZ    2007-01-01     52
##  6 IND_TOTAL PC_IND I_ILT12  DE    2007-01-01     75
##  7 IND_TOTAL PC_IND I_ILT12  DK    2007-01-01     85
##  8 IND_TOTAL PC_IND I_ILT12  EA    2007-01-01     61
##  9 IND_TOTAL PC_IND I_ILT12  EE    2007-01-01     66
## 10 IND_TOTAL PC_IND I_ILT12  EL    2007-01-01     36
## # … with 1,702 more rows
…
